EESchema Schematic File Version 2
LIBS:APRS_Balise-rescue
LIBS:power
LIBS:device
LIBS:transistors
LIBS:conn
LIBS:linear
LIBS:regul
LIBS:74xx
LIBS:cmos4000
LIBS:adc-dac
LIBS:memory
LIBS:xilinx
LIBS:microcontrollers
LIBS:dsp
LIBS:microchip
LIBS:analog_switches
LIBS:motorola
LIBS:texas
LIBS:intel
LIBS:audio
LIBS:interface
LIBS:digital-audio
LIBS:philips
LIBS:display
LIBS:cypress
LIBS:siliconi
LIBS:opto
LIBS:atmel
LIBS:contrib
LIBS:valves
LIBS:arduino_mini
LIBS:usb-uart
LIBS:NEO-6M
LIBS:TMP36
LIBS:APRS_Balise-cache
EELAYER 25 0
EELAYER END
$Descr A4 11693 8268
encoding utf-8
Sheet 1 1
Title ""
Date ""
Rev ""
Comp ""
Comment1 ""
Comment2 ""
Comment3 ""
Comment4 ""
$EndDescr
$Comp
L Arduino_Mini_Pro U3
U 1 1 583AE3F3
P 5500 2800
F 0 "U3" H 5450 2800 60  0000 C CNN
F 1 "Arduino_Mini_Pro" H 5450 2700 60  0000 C CNN
F 2 "lib_kicad:Arduino_Mini_pro" H 5450 2800 60  0001 C CNN
F 3 "" H 5450 2800 60  0000 C CNN
	1    5500 2800
	1    0    0    -1  
$EndComp
$Comp
L NEO-6M U1
U 1 1 583AEC83
P 1250 3650
F 0 "U1" H 1250 3700 60  0000 C CNN
F 1 "NEO-6M" H 1250 3600 60  0000 C CNN
F 2 "lib_kicad:NEO-6M" H 1250 3700 60  0001 C CNN
F 3 "" H 1250 3700 60  0001 C CNN
	1    1250 3650
	1    0    0    -1  
$EndComp
$Comp
L USB-UART U2
U 1 1 583AED08
P 1600 2250
F 0 "U2" H 1600 2250 60  0000 C CNN
F 1 "USB-UART" H 1500 2450 60  0000 C CNN
F 2 "lib_kicad:USB-UART" H 1600 2250 60  0001 C CNN
F 3 "" H 1600 2250 60  0000 C CNN
	1    1600 2250
	1    0    0    -1  
$EndComp
$Comp
L GND #PWR01
U 1 1 583AED80
P 4600 2250
F 0 "#PWR01" H 4600 2000 50  0001 C CNN
F 1 "GND" H 4600 2100 50  0000 C CNN
F 2 "" H 4600 2250 50  0000 C CNN
F 3 "" H 4600 2250 50  0000 C CNN
	1    4600 2250
	1    0    0    -1  
$EndComp
$Comp
L VCC #PWR02
U 1 1 583AED9A
P 4600 2000
F 0 "#PWR02" H 4600 1850 50  0001 C CNN
F 1 "VCC" H 4600 2150 50  0000 C CNN
F 2 "" H 4600 2000 50  0000 C CNN
F 3 "" H 4600 2000 50  0000 C CNN
	1    4600 2000
	1    0    0    -1  
$EndComp
$Comp
L VCC #PWR03
U 1 1 583AEDC2
P 2300 1900
F 0 "#PWR03" H 2300 1750 50  0001 C CNN
F 1 "VCC" H 2300 2050 50  0000 C CNN
F 2 "" H 2300 1900 50  0000 C CNN
F 3 "" H 2300 1900 50  0000 C CNN
	1    2300 1900
	1    0    0    -1  
$EndComp
$Comp
L GND #PWR04
U 1 1 583AEDD9
P 2400 2550
F 0 "#PWR04" H 2400 2300 50  0001 C CNN
F 1 "GND" H 2400 2400 50  0000 C CNN
F 2 "" H 2400 2550 50  0000 C CNN
F 3 "" H 2400 2550 50  0000 C CNN
	1    2400 2550
	1    0    0    -1  
$EndComp
$Comp
L GND #PWR05
U 1 1 583AEDF6
P 1900 3800
F 0 "#PWR05" H 1900 3550 50  0001 C CNN
F 1 "GND" H 1900 3650 50  0000 C CNN
F 2 "" H 1900 3800 50  0000 C CNN
F 3 "" H 1900 3800 50  0000 C CNN
	1    1900 3800
	1    0    0    -1  
$EndComp
$Comp
L VCC #PWR06
U 1 1 583AEE0A
P 1950 3450
F 0 "#PWR06" H 1950 3300 50  0001 C CNN
F 1 "VCC" H 1950 3600 50  0000 C CNN
F 2 "" H 1950 3450 50  0000 C CNN
F 3 "" H 1950 3450 50  0000 C CNN
	1    1950 3450
	1    0    0    -1  
$EndComp
$Comp
L C C1
U 1 1 583AF384
P 4000 1550
F 0 "C1" H 4025 1650 50  0000 L CNN
F 1 "0.1u" H 4025 1450 50  0000 L CNN
F 2 "Capacitors_SMD:C_1206_HandSoldering" H 4038 1400 50  0001 C CNN
F 3 "" H 4000 1550 50  0000 C CNN
	1    4000 1550
	0    1    1    0   
$EndComp
Text Label 4700 3050 2    60   ~ 0
FSK_out
$Comp
L R R1
U 1 1 583AF53F
P 4750 4550
F 0 "R1" V 4830 4550 50  0000 C CNN
F 1 "100k" V 4750 4550 50  0000 C CNN
F 2 "Resistors_Universal:Resistor_SMDuniversal_0805to1206_HandSoldering" V 4680 4550 50  0001 C CNN
F 3 "" H 4750 4550 50  0000 C CNN
	1    4750 4550
	0    1    1    0   
$EndComp
$Comp
L GND #PWR07
U 1 1 583AF5D9
P 5100 4950
F 0 "#PWR07" H 5100 4700 50  0001 C CNN
F 1 "GND" H 5100 4800 50  0000 C CNN
F 2 "" H 5100 4950 50  0000 C CNN
F 3 "" H 5100 4950 50  0000 C CNN
	1    5100 4950
	1    0    0    -1  
$EndComp
Text Label 4600 4550 2    60   ~ 0
FSK_out
$Comp
L CONN_01X02 P1
U 1 1 583AF6F0
P 5850 4600
F 0 "P1" H 5850 4750 50  0000 C CNN
F 1 "CONN_01X02" V 5950 4600 50  0000 C CNN
F 2 "Pin_Headers:Pin_Header_Straight_1x02" H 5850 4600 50  0001 C CNN
F 3 "" H 5850 4600 50  0000 C CNN
	1    5850 4600
	1    0    0    -1  
$EndComp
$Comp
L TMP36 U4
U 1 1 583AF93B
P 8100 1650
F 0 "U4" H 8100 1650 60  0000 C CNN
F 1 "TMP36" H 8100 1550 60  0000 C CNN
F 2 "TO_SOT_Packages_THT:TO-92_Inline_Narrow_Oval" H 8100 1650 60  0001 C CNN
F 3 "" H 8100 1650 60  0001 C CNN
	1    8100 1650
	-1   0    0    -1  
$EndComp
$Comp
L GND #PWR08
U 1 1 583AF9E3
P 8100 2250
F 0 "#PWR08" H 8100 2000 50  0001 C CNN
F 1 "GND" H 8100 2100 50  0000 C CNN
F 2 "" H 8100 2250 50  0000 C CNN
F 3 "" H 8100 2250 50  0000 C CNN
	1    8100 2250
	1    0    0    -1  
$EndComp
$Comp
L GND #PWR09
U 1 1 583AFF0F
P 5150 1300
F 0 "#PWR09" H 5150 1050 50  0001 C CNN
F 1 "GND" H 5150 1150 50  0000 C CNN
F 2 "" H 5150 1300 50  0000 C CNN
F 3 "" H 5150 1300 50  0000 C CNN
	1    5150 1300
	1    0    0    -1  
$EndComp
$Comp
L VCC #PWR010
U 1 1 583AFF15
P 5150 900
F 0 "#PWR010" H 5150 750 50  0001 C CNN
F 1 "VCC" H 5150 1050 50  0000 C CNN
F 2 "" H 5150 900 50  0000 C CNN
F 3 "" H 5150 900 50  0000 C CNN
	1    5150 900 
	1    0    0    -1  
$EndComp
Text Label 4700 3150 2    60   ~ 0
PTT
$Comp
L LED-RESCUE-APRS_Balise D2
U 1 1 583B02C0
P 6900 3350
F 0 "D2" H 6900 3450 50  0000 C CNN
F 1 "LED" H 6900 3250 50  0000 C CNN
F 2 "LEDs:LED-3MM" H 6900 3350 50  0001 C CNN
F 3 "" H 6900 3350 50  0000 C CNN
	1    6900 3350
	-1   0    0    1   
$EndComp
Text Label 4700 3350 2    60   ~ 0
Vtemp_1
Text Label 4700 3650 2    60   ~ 0
Buzzer
Text Label 6250 2950 0    60   ~ 0
Vmeter
Text Label 8100 1200 2    60   ~ 0
Vtemp_1
Text Label 7600 1650 2    60   ~ 0
Temp_1
Text Label 6250 3150 0    60   ~ 0
Temp_1
Text Label 4700 3450 2    60   ~ 0
Vtemp_2
Text Label 6250 3050 0    60   ~ 0
Temp_2
$Comp
L LED-RESCUE-APRS_Balise D1
U 1 1 583B0E44
P 6550 3450
F 0 "D1" H 6550 3550 50  0000 C CNN
F 1 "LED" H 6550 3350 50  0000 C CNN
F 2 "LEDs:LED-3MM" H 6550 3450 50  0001 C CNN
F 3 "" H 6550 3450 50  0000 C CNN
	1    6550 3450
	-1   0    0    1   
$EndComp
$Comp
L R R3
U 1 1 583B10ED
P 7450 3350
F 0 "R3" V 7530 3350 50  0000 C CNN
F 1 "1k" V 7450 3350 50  0000 C CNN
F 2 "Resistors_Universal:Resistor_SMDuniversal_0805to1206_HandSoldering" V 7380 3350 50  0001 C CNN
F 3 "" H 7450 3350 50  0000 C CNN
	1    7450 3350
	0    1    1    0   
$EndComp
$Comp
L R R2
U 1 1 583B113E
P 7150 3450
F 0 "R2" V 7230 3450 50  0000 C CNN
F 1 "1k" V 7150 3450 50  0000 C CNN
F 2 "Resistors_Universal:Resistor_SMDuniversal_0805to1206_HandSoldering" V 7080 3450 50  0001 C CNN
F 3 "" H 7150 3450 50  0000 C CNN
	1    7150 3450
	0    1    1    0   
$EndComp
$Comp
L GND #PWR011
U 1 1 583B14CA
P 7700 3800
F 0 "#PWR011" H 7700 3550 50  0001 C CNN
F 1 "GND" H 7700 3650 50  0000 C CNN
F 2 "" H 7700 3800 50  0000 C CNN
F 3 "" H 7700 3800 50  0000 C CNN
	1    7700 3800
	1    0    0    -1  
$EndComp
$Comp
L CP C2
U 1 1 583B1A74
P 5100 4700
F 0 "C2" H 5125 4800 50  0000 L CNN
F 1 "1u" H 5125 4600 50  0000 L CNN
F 2 "SMD_Packages:SMD-1206_Pol" H 5138 4550 50  0001 C CNN
F 3 "" H 5100 4700 50  0000 C CNN
	1    5100 4700
	1    0    0    -1  
$EndComp
$Comp
L CP C3
U 1 1 583B21E6
P 5150 1100
F 0 "C3" H 5175 1200 50  0000 L CNN
F 1 "1u" H 5175 1000 50  0000 L CNN
F 2 "SMD_Packages:SMD-1206_Pol" H 5188 950 50  0001 C CNN
F 3 "" H 5150 1100 50  0000 C CNN
	1    5150 1100
	1    0    0    -1  
$EndComp
Wire Wire Line
	4600 2000 4600 2100
Wire Wire Line
	4600 2100 4700 2100
Wire Wire Line
	4600 2250 4700 2250
Wire Wire Line
	1800 3500 1950 3500
Wire Wire Line
	1950 3500 1950 3450
Wire Wire Line
	1800 3800 1900 3800
Wire Wire Line
	2200 2400 2400 2400
Wire Wire Line
	2400 2400 2400 2550
Wire Wire Line
	2200 2500 2300 2500
Wire Wire Line
	2300 2500 2300 1900
Wire Wire Line
	1800 3700 2750 3700
Wire Wire Line
	1800 3600 2650 3600
Wire Wire Line
	2200 2300 2550 2300
Wire Wire Line
	2550 2300 2550 3050
Wire Wire Line
	4150 1550 4150 2700
Wire Wire Line
	4150 2700 4700 2700
Wire Wire Line
	4900 4550 5650 4550
Connection ~ 5100 4550
Wire Wire Line
	5100 4850 5100 4950
Wire Wire Line
	5100 4900 5650 4900
Wire Wire Line
	5650 4900 5650 4650
Connection ~ 5100 4900
Wire Wire Line
	8100 2200 8100 2250
Wire Wire Line
	5150 900  5150 950 
Wire Wire Line
	5150 1250 5150 1300
Wire Wire Line
	6700 3350 6250 3350
Wire Wire Line
	6250 3450 6350 3450
Wire Wire Line
	7100 3350 7300 3350
Wire Wire Line
	6750 3450 7000 3450
Wire Wire Line
	7300 3450 7700 3450
Wire Wire Line
	7700 3350 7700 3800
Connection ~ 7700 3450
Wire Wire Line
	7600 3350 7700 3350
$Comp
L Switch_SPDT_x2 SW1
U 1 1 583B2D48
P 3300 2650
F 0 "SW1" H 3100 2800 50  0000 C CNN
F 1 "Switch_SPDT_x2" H 3050 2500 50  0000 C CNN
F 2 "Buttons_Switches_ThroughHole:SW_NKK_G1xJP" H 3300 2650 50  0001 C CNN
F 3 "" H 3300 2650 50  0000 C CNN
	1    3300 2650
	-1   0    0    -1  
$EndComp
$Comp
L Switch_SPDT_x2 SW1
U 2 1 583B2E63
P 3300 3150
F 0 "SW1" H 3100 3300 50  0000 C CNN
F 1 "Switch_SPDT_x2" H 3050 3000 50  0000 C CNN
F 2 "Buttons_Switches_ThroughHole:SW_NKK_G1xJP" H 3300 3150 50  0001 C CNN
F 3 "" H 3300 3150 50  0000 C CNN
	2    3300 3150
	-1   0    0    1   
$EndComp
Wire Wire Line
	3750 2650 3600 2650
Wire Wire Line
	3750 2050 3750 2650
Wire Wire Line
	3750 2500 4700 2500
Wire Wire Line
	3000 2750 2650 2750
Wire Wire Line
	2650 2750 2650 3600
Wire Wire Line
	2550 3050 3000 3050
Wire Wire Line
	3000 3250 2750 3250
Wire Wire Line
	2750 3250 2750 3700
Wire Wire Line
	3600 3150 3950 3150
Wire Wire Line
	3950 3150 3950 2600
Wire Wire Line
	3950 2600 4700 2600
Wire Wire Line
	2700 2550 3000 2550
Wire Wire Line
	2200 2200 3000 2200
Connection ~ 3750 2500
$Comp
L Switch_SPDT_x2 SW2
U 1 1 583B39BA
P 3300 2150
F 0 "SW2" H 3100 2300 50  0000 C CNN
F 1 "Switch_SPDT_x2" H 3050 2000 50  0000 C CNN
F 2 "Buttons_Switches_ThroughHole:SW_NKK_G1xJP" H 3300 2150 50  0001 C CNN
F 3 "" H 3300 2150 50  0000 C CNN
	1    3300 2150
	-1   0    0    1   
$EndComp
Connection ~ 2700 2200
Wire Wire Line
	2200 2100 2600 2100
Wire Wire Line
	2600 2100 2600 1550
Wire Wire Line
	2600 1550 3850 1550
$Comp
L Switch_SPDT_x2 SW2
U 2 1 583F4E1D
P 3300 1750
F 0 "SW2" H 3100 1900 50  0000 C CNN
F 1 "Switch_SPDT_x2" H 3050 1600 50  0000 C CNN
F 2 "Buttons_Switches_ThroughHole:SW_NKK_G1xJP" H 3300 1750 50  0001 C CNN
F 3 "" H 3300 1750 50  0000 C CNN
	2    3300 1750
	-1   0    0    -1  
$EndComp
Wire Wire Line
	2700 2550 2700 2200
Wire Wire Line
	3000 2200 3000 2250
Wire Wire Line
	2850 2200 2850 1850
Wire Wire Line
	2850 1850 3000 1850
Connection ~ 2850 2200
Wire Wire Line
	3600 2150 3600 1750
Wire Wire Line
	3600 2050 3750 2050
Connection ~ 3600 2050
$EndSCHEMATC
